<?xml version="1.0" encoding="utf-8" standalone="no"?>
<!DOCTYPE svg PUBLIC "-//W3C//DTD SVG 1.1//EN"
  "http://www.w3.org/Graphics/SVG/1.1/DTD/svg11.dtd">
<svg xmlns:xlink="http://www.w3.org/1999/xlink" width="864pt" height="432pt" viewBox="0 0 864 432" xmlns="http://www.w3.org/2000/svg" version="1.1">
 <metadata>
  <rdf:RDF xmlns:dc="http://purl.org/dc/elements/1.1/" xmlns:cc="http://creativecommons.org/ns#" xmlns:rdf="http://www.w3.org/1999/02/22-rdf-syntax-ns#">
   <cc:Work>
    <dc:type rdf:resource="http://purl.org/dc/dcmitype/StillImage"/>
    <dc:date>2025-01-09T22:27:09.270109</dc:date>
    <dc:format>image/svg+xml</dc:format>
    <dc:creator>
     <cc:Agent>
      <dc:title>Matplotlib v3.10.0, https://matplotlib.org/</dc:title>
     </cc:Agent>
    </dc:creator>
   </cc:Work>
  </rdf:RDF>
 </metadata>
 <defs>
  <style type="text/css">*{stroke-linejoin: round; stroke-linecap: butt}</style>
 </defs>
 <g id="figure_1">
  <g id="patch_1">
   <path d="M 0 432 
L 864 432 
L 864 0 
L 0 0 
z
" style="fill: #ffffff"/>
  </g>
  <g id="axes_1">
   <g id="patch_2">
    <path d="M 108 384.48 
L 777.6 384.48 
L 777.6 51.84 
L 108 51.84 
z
" style="fill: #ffffff"/>
   </g>
   <g id="line2d_1">
    <path d="M 300.834304 225.310063 
L 267.483426 247.157698 
" clip-path="url(#p56271068e6)" style="fill: none; stroke-dasharray: 5.55,2.4; stroke-dashoffset: 0; stroke: #808080; stroke-opacity: 0.2; stroke-width: 1.5"/>
   </g>
   <g id="line2d_2">
    <path d="M 446.467397 353.34608 
L 304.573466 363.834665 
" clip-path="url(#p56271068e6)" style="fill: none; stroke-dasharray: 5.55,2.4; stroke-dashoffset: 0; stroke: #808080; stroke-opacity: 0.2; stroke-width: 1.5"/>
   </g>
   <g id="line2d_3">
    <path d="M 464.758142 124.174348 
L 328.203726 168.036349 
" clip-path="url(#p56271068e6)" style="fill: none; stroke-dasharray: 5.55,2.4; stroke-dashoffset: 0; stroke: #808080; stroke-opacity: 0.2; stroke-width: 1.5"/>
   </g>
   <g id="line2d_4">
    <path d="M 421.38119 208.817847 
L 232.478636 226.388127 
" clip-path="url(#p56271068e6)" style="fill: none; stroke-dasharray: 5.55,2.4; stroke-dashoffset: 0; stroke: #808080; stroke-opacity: 0.2; stroke-width: 1.5"/>
   </g>
   <g id="line2d_5">
    <path d="M 747.163636 121.033005 
L 528.865474 209.554043 
" clip-path="url(#p56271068e6)" style="fill: none; stroke-dasharray: 5.55,2.4; stroke-dashoffset: 0; stroke: #808080; stroke-opacity: 0.2; stroke-width: 1.5"/>
   </g>
   <g id="line2d_6">
    <path d="M 185.457125 325.149583 
L 138.436364 345.014824 
" clip-path="url(#p56271068e6)" style="fill: none; stroke-dasharray: 5.55,2.4; stroke-dashoffset: 0; stroke: #808080; stroke-opacity: 0.2; stroke-width: 1.5"/>
   </g>
   <g id="line2d_7">
    <path d="M 317.995456 336.933008 
L 215.091992 338.547678 
" clip-path="url(#p56271068e6)" style="fill: none; stroke-dasharray: 5.55,2.4; stroke-dashoffset: 0; stroke: #808080; stroke-opacity: 0.2; stroke-width: 1.5"/>
   </g>
   <g id="line2d_8">
    <path d="M 725.350838 66.96 
L 432.813782 120.723976 
" clip-path="url(#p56271068e6)" style="fill: none; stroke-dasharray: 5.55,2.4; stroke-dashoffset: 0; stroke: #808080; stroke-opacity: 0.2; stroke-width: 1.5"/>
   </g>
   <g id="line2d_9">
    <path d="M 601.403157 93.967548 
L 446.791997 138.891462 
" clip-path="url(#p56271068e6)" style="fill: none; stroke-dasharray: 5.55,2.4; stroke-dashoffset: 0; stroke: #808080; stroke-opacity: 0.2; stroke-width: 1.5"/>
   </g>
   <g id="line2d_10">
    <path d="M 219.671185 254.699765 
L 154.020062 283.818996 
" clip-path="url(#p56271068e6)" style="fill: none; stroke-dasharray: 5.55,2.4; stroke-dashoffset: 0; stroke: #808080; stroke-opacity: 0.2; stroke-width: 1.5"/>
   </g>
   <g id="line2d_11">
    <path d="M 466.836511 101.520471 
L 342.718145 127.974135 
" clip-path="url(#p56271068e6)" style="fill: none; stroke-dasharray: 5.55,2.4; stroke-dashoffset: 0; stroke: #808080; stroke-opacity: 0.2; stroke-width: 1.5"/>
   </g>
   <g id="line2d_12">
    <path d="M 253.006547 348.266519 
L 166.370645 365.035379 
" clip-path="url(#p56271068e6)" style="fill: none; stroke-dasharray: 5.55,2.4; stroke-dashoffset: 0; stroke: #808080; stroke-opacity: 0.2; stroke-width: 1.5"/>
   </g>
   <g id="line2d_13">
    <path d="M 280.026216 357.734041 
L 226.217127 369.36 
" clip-path="url(#p56271068e6)" style="fill: none; stroke-dasharray: 5.55,2.4; stroke-dashoffset: 0; stroke: #808080; stroke-opacity: 0.2; stroke-width: 1.5"/>
   </g>
   <g id="line2d_14">
    <path d="M 522.930442 211.986019 
L 468.94754 240.426657 
" clip-path="url(#p56271068e6)" style="fill: none; stroke-dasharray: 5.55,2.4; stroke-dashoffset: 0; stroke: #808080; stroke-opacity: 0.2; stroke-width: 1.5"/>
   </g>
   <g id="line2d_15">
    <path d="M 384.243598 207.642193 
L 254.720022 268.70074 
" clip-path="url(#p56271068e6)" style="fill: none; stroke-dasharray: 5.55,2.4; stroke-dashoffset: 0; stroke: #808080; stroke-opacity: 0.2; stroke-width: 1.5"/>
   </g>
   <g id="line2d_16">
    <path d="M 485.627046 214.693282 
L 347.147802 237.930644 
" clip-path="url(#p56271068e6)" style="fill: none; stroke-dasharray: 5.55,2.4; stroke-dashoffset: 0; stroke: #808080; stroke-opacity: 0.2; stroke-width: 1.5"/>
   </g>
   <g id="line2d_17">
    <path d="M 359.311933 199.236386 
L 260.902571 242.778853 
" clip-path="url(#p56271068e6)" style="fill: none; stroke-dasharray: 5.55,2.4; stroke-dashoffset: 0; stroke: #808080; stroke-opacity: 0.2; stroke-width: 1.5"/>
   </g>
   <g id="line2d_18">
    <path d="M 441.589881 194.518233 
L 341.794022 232.129851 
" clip-path="url(#p56271068e6)" style="fill: none; stroke-dasharray: 5.55,2.4; stroke-dashoffset: 0; stroke: #808080; stroke-opacity: 0.2; stroke-width: 1.5"/>
   </g>
   <g id="line2d_19">
    <path d="M 555.033599 122.280423 
L 397.786844 166.200558 
" clip-path="url(#p56271068e6)" style="fill: none; stroke-dasharray: 5.55,2.4; stroke-dashoffset: 0; stroke: #808080; stroke-opacity: 0.2; stroke-width: 1.5"/>
   </g>
   <g id="line2d_20">
    <path d="M 224.213464 305.888955 
L 160.365913 336.068987 
" clip-path="url(#p56271068e6)" style="fill: none; stroke-dasharray: 5.55,2.4; stroke-dashoffset: 0; stroke: #808080; stroke-opacity: 0.2; stroke-width: 1.5"/>
   </g>
   <g id="matplotlib.axis_1">
    <g id="xtick_1">
     <g id="line2d_21">
      <defs>
       <path id="m191ca51d63" d="M 0 0 
L 0 3.5 
" style="stroke: #000000; stroke-width: 0.8"/>
      </defs>
      <g>
       <use xlink:href="#m191ca51d63" x="140.814856" y="384.48" style="stroke: #000000; stroke-width: 0.8"/>
      </g>
     </g>
     <g id="text_1">
      <!-- −0.85 -->
      <g transform="translate(125.4922 399.078438) scale(0.1 -0.1)">
       <defs>
        <path id="DejaVuSans-2212" d="M 678 2272 
L 4684 2272 
L 4684 1741 
L 678 1741 
L 678 2272 
z
" transform="scale(0.015625)"/>
        <path id="DejaVuSans-30" d="M 2034 4250 
Q 1547 4250 1301 3770 
Q 1056 3291 1056 2328 
Q 1056 1369 1301 889 
Q 1547 409 2034 409 
Q 2525 409 2770 889 
Q 3016 1369 3016 2328 
Q 3016 3291 2770 3770 
Q 2525 4250 2034 4250 
z
M 2034 4750 
Q 2819 4750 3233 4129 
Q 3647 3509 3647 2328 
Q 3647 1150 3233 529 
Q 2819 -91 2034 -91 
Q 1250 -91 836 529 
Q 422 1150 422 2328 
Q 422 3509 836 4129 
Q 1250 4750 2034 4750 
z
" transform="scale(0.015625)"/>
        <path id="DejaVuSans-2e" d="M 684 794 
L 1344 794 
L 1344 0 
L 684 0 
L 684 794 
z
" transform="scale(0.015625)"/>
        <path id="DejaVuSans-38" d="M 2034 2216 
Q 1584 2216 1326 1975 
Q 1069 1734 1069 1313 
Q 1069 891 1326 650 
Q 1584 409 2034 409 
Q 2484 409 2743 651 
Q 3003 894 3003 1313 
Q 3003 1734 2745 1975 
Q 2488 2216 2034 2216 
z
M 1403 2484 
Q 997 2584 770 2862 
Q 544 3141 544 3541 
Q 544 4100 942 4425 
Q 1341 4750 2034 4750 
Q 2731 4750 3128 4425 
Q 3525 4100 3525 3541 
Q 3525 3141 3298 2862 
Q 3072 2584 2669 2484 
Q 3125 2378 3379 2068 
Q 3634 1759 3634 1313 
Q 3634 634 3220 271 
Q 2806 -91 2034 -91 
Q 1263 -91 848 271 
Q 434 634 434 1313 
Q 434 1759 690 2068 
Q 947 2378 1403 2484 
z
M 1172 3481 
Q 1172 3119 1398 2916 
Q 1625 2713 2034 2713 
Q 2441 2713 2670 2916 
Q 2900 3119 2900 3481 
Q 2900 3844 2670 4047 
Q 2441 4250 2034 4250 
Q 1625 4250 1398 4047 
Q 1172 3844 1172 3481 
z
" transform="scale(0.015625)"/>
        <path id="DejaVuSans-35" d="M 691 4666 
L 3169 4666 
L 3169 4134 
L 1269 4134 
L 1269 2991 
Q 1406 3038 1543 3061 
Q 1681 3084 1819 3084 
Q 2600 3084 3056 2656 
Q 3513 2228 3513 1497 
Q 3513 744 3044 326 
Q 2575 -91 1722 -91 
Q 1428 -91 1123 -41 
Q 819 9 494 109 
L 494 744 
Q 775 591 1075 516 
Q 1375 441 1709 441 
Q 2250 441 2565 725 
Q 2881 1009 2881 1497 
Q 2881 1984 2565 2268 
Q 2250 2553 1709 2553 
Q 1456 2553 1204 2497 
Q 953 2441 691 2322 
L 691 4666 
z
" transform="scale(0.015625)"/>
       </defs>
       <use xlink:href="#DejaVuSans-2212"/>
       <use xlink:href="#DejaVuSans-30" transform="translate(83.789062 0)"/>
       <use xlink:href="#DejaVuSans-2e" transform="translate(147.412109 0)"/>
       <use xlink:href="#DejaVuSans-38" transform="translate(179.199219 0)"/>
       <use xlink:href="#DejaVuSans-35" transform="translate(242.822266 0)"/>
      </g>
     </g>
    </g>
    <g id="xtick_2">
     <g id="line2d_22">
      <g>
       <use xlink:href="#m191ca51d63" x="245.785777" y="384.48" style="stroke: #000000; stroke-width: 0.8"/>
      </g>
     </g>
     <g id="text_2">
      <!-- −0.80 -->
      <g transform="translate(230.463121 399.078438) scale(0.1 -0.1)">
       <use xlink:href="#DejaVuSans-2212"/>
       <use xlink:href="#DejaVuSans-30" transform="translate(83.789062 0)"/>
       <use xlink:href="#DejaVuSans-2e" transform="translate(147.412109 0)"/>
       <use xlink:href="#DejaVuSans-38" transform="translate(179.199219 0)"/>
       <use xlink:href="#DejaVuSans-30" transform="translate(242.822266 0)"/>
      </g>
     </g>
    </g>
    <g id="xtick_3">
     <g id="line2d_23">
      <g>
       <use xlink:href="#m191ca51d63" x="350.756698" y="384.48" style="stroke: #000000; stroke-width: 0.8"/>
      </g>
     </g>
     <g id="text_3">
      <!-- −0.75 -->
      <g transform="translate(335.434041 399.078438) scale(0.1 -0.1)">
       <defs>
        <path id="DejaVuSans-37" d="M 525 4666 
L 3525 4666 
L 3525 4397 
L 1831 0 
L 1172 0 
L 2766 4134 
L 525 4134 
L 525 4666 
z
" transform="scale(0.015625)"/>
       </defs>
       <use xlink:href="#DejaVuSans-2212"/>
       <use xlink:href="#DejaVuSans-30" transform="translate(83.789062 0)"/>
       <use xlink:href="#DejaVuSans-2e" transform="translate(147.412109 0)"/>
       <use xlink:href="#DejaVuSans-37" transform="translate(179.199219 0)"/>
       <use xlink:href="#DejaVuSans-35" transform="translate(242.822266 0)"/>
      </g>
     </g>
    </g>
    <g id="xtick_4">
     <g id="line2d_24">
      <g>
       <use xlink:href="#m191ca51d63" x="455.727618" y="384.48" style="stroke: #000000; stroke-width: 0.8"/>
      </g>
     </g>
     <g id="text_4">
      <!-- −0.70 -->
      <g transform="translate(440.404962 399.078438) scale(0.1 -0.1)">
       <use xlink:href="#DejaVuSans-2212"/>
       <use xlink:href="#DejaVuSans-30" transform="translate(83.789062 0)"/>
       <use xlink:href="#DejaVuSans-2e" transform="translate(147.412109 0)"/>
       <use xlink:href="#DejaVuSans-37" transform="translate(179.199219 0)"/>
       <use xlink:href="#DejaVuSans-30" transform="translate(242.822266 0)"/>
      </g>
     </g>
    </g>
    <g id="xtick_5">
     <g id="line2d_25">
      <g>
       <use xlink:href="#m191ca51d63" x="560.698539" y="384.48" style="stroke: #000000; stroke-width: 0.8"/>
      </g>
     </g>
     <g id="text_5">
      <!-- −0.65 -->
      <g transform="translate(545.375883 399.078438) scale(0.1 -0.1)">
       <defs>
        <path id="DejaVuSans-36" d="M 2113 2584 
Q 1688 2584 1439 2293 
Q 1191 2003 1191 1497 
Q 1191 994 1439 701 
Q 1688 409 2113 409 
Q 2538 409 2786 701 
Q 3034 994 3034 1497 
Q 3034 2003 2786 2293 
Q 2538 2584 2113 2584 
z
M 3366 4563 
L 3366 3988 
Q 3128 4100 2886 4159 
Q 2644 4219 2406 4219 
Q 1781 4219 1451 3797 
Q 1122 3375 1075 2522 
Q 1259 2794 1537 2939 
Q 1816 3084 2150 3084 
Q 2853 3084 3261 2657 
Q 3669 2231 3669 1497 
Q 3669 778 3244 343 
Q 2819 -91 2113 -91 
Q 1303 -91 875 529 
Q 447 1150 447 2328 
Q 447 3434 972 4092 
Q 1497 4750 2381 4750 
Q 2619 4750 2861 4703 
Q 3103 4656 3366 4563 
z
" transform="scale(0.015625)"/>
       </defs>
       <use xlink:href="#DejaVuSans-2212"/>
       <use xlink:href="#DejaVuSans-30" transform="translate(83.789062 0)"/>
       <use xlink:href="#DejaVuSans-2e" transform="translate(147.412109 0)"/>
       <use xlink:href="#DejaVuSans-36" transform="translate(179.199219 0)"/>
       <use xlink:href="#DejaVuSans-35" transform="translate(242.822266 0)"/>
      </g>
     </g>
    </g>
    <g id="xtick_6">
     <g id="line2d_26">
      <g>
       <use xlink:href="#m191ca51d63" x="665.66946" y="384.48" style="stroke: #000000; stroke-width: 0.8"/>
      </g>
     </g>
     <g id="text_6">
      <!-- −0.60 -->
      <g transform="translate(650.346804 399.078438) scale(0.1 -0.1)">
       <use xlink:href="#DejaVuSans-2212"/>
       <use xlink:href="#DejaVuSans-30" transform="translate(83.789062 0)"/>
       <use xlink:href="#DejaVuSans-2e" transform="translate(147.412109 0)"/>
       <use xlink:href="#DejaVuSans-36" transform="translate(179.199219 0)"/>
       <use xlink:href="#DejaVuSans-30" transform="translate(242.822266 0)"/>
      </g>
     </g>
    </g>
    <g id="xtick_7">
     <g id="line2d_27">
      <g>
       <use xlink:href="#m191ca51d63" x="770.640381" y="384.48" style="stroke: #000000; stroke-width: 0.8"/>
      </g>
     </g>
     <g id="text_7">
      <!-- −0.55 -->
      <g transform="translate(755.317724 399.078438) scale(0.1 -0.1)">
       <use xlink:href="#DejaVuSans-2212"/>
       <use xlink:href="#DejaVuSans-30" transform="translate(83.789062 0)"/>
       <use xlink:href="#DejaVuSans-2e" transform="translate(147.412109 0)"/>
       <use xlink:href="#DejaVuSans-35" transform="translate(179.199219 0)"/>
       <use xlink:href="#DejaVuSans-35" transform="translate(242.822266 0)"/>
      </g>
     </g>
    </g>
    <g id="text_8">
     <!-- SVD Component 1 -->
     <g transform="translate(396.967188 412.756563) scale(0.1 -0.1)">
      <defs>
       <path id="DejaVuSans-53" d="M 3425 4513 
L 3425 3897 
Q 3066 4069 2747 4153 
Q 2428 4238 2131 4238 
Q 1616 4238 1336 4038 
Q 1056 3838 1056 3469 
Q 1056 3159 1242 3001 
Q 1428 2844 1947 2747 
L 2328 2669 
Q 3034 2534 3370 2195 
Q 3706 1856 3706 1288 
Q 3706 609 3251 259 
Q 2797 -91 1919 -91 
Q 1588 -91 1214 -16 
Q 841 59 441 206 
L 441 856 
Q 825 641 1194 531 
Q 1563 422 1919 422 
Q 2459 422 2753 634 
Q 3047 847 3047 1241 
Q 3047 1584 2836 1778 
Q 2625 1972 2144 2069 
L 1759 2144 
Q 1053 2284 737 2584 
Q 422 2884 422 3419 
Q 422 4038 858 4394 
Q 1294 4750 2059 4750 
Q 2388 4750 2728 4690 
Q 3069 4631 3425 4513 
z
" transform="scale(0.015625)"/>
       <path id="DejaVuSans-56" d="M 1831 0 
L 50 4666 
L 709 4666 
L 2188 738 
L 3669 4666 
L 4325 4666 
L 2547 0 
L 1831 0 
z
" transform="scale(0.015625)"/>
       <path id="DejaVuSans-44" d="M 1259 4147 
L 1259 519 
L 2022 519 
Q 2988 519 3436 956 
Q 3884 1394 3884 2338 
Q 3884 3275 3436 3711 
Q 2988 4147 2022 4147 
L 1259 4147 
z
M 628 4666 
L 1925 4666 
Q 3281 4666 3915 4102 
Q 4550 3538 4550 2338 
Q 4550 1131 3912 565 
Q 3275 0 1925 0 
L 628 0 
L 628 4666 
z
" transform="scale(0.015625)"/>
       <path id="DejaVuSans-20" transform="scale(0.015625)"/>
       <path id="DejaVuSans-43" d="M 4122 4306 
L 4122 3641 
Q 3803 3938 3442 4084 
Q 3081 4231 2675 4231 
Q 1875 4231 1450 3742 
Q 1025 3253 1025 2328 
Q 1025 1406 1450 917 
Q 1875 428 2675 428 
Q 3081 428 3442 575 
Q 3803 722 4122 1019 
L 4122 359 
Q 3791 134 3420 21 
Q 3050 -91 2638 -91 
Q 1578 -91 968 557 
Q 359 1206 359 2328 
Q 359 3453 968 4101 
Q 1578 4750 2638 4750 
Q 3056 4750 3426 4639 
Q 3797 4528 4122 4306 
z
" transform="scale(0.015625)"/>
       <path id="DejaVuSans-6f" d="M 1959 3097 
Q 1497 3097 1228 2736 
Q 959 2375 959 1747 
Q 959 1119 1226 758 
Q 1494 397 1959 397 
Q 2419 397 2687 759 
Q 2956 1122 2956 1747 
Q 2956 2369 2687 2733 
Q 2419 3097 1959 3097 
z
M 1959 3584 
Q 2709 3584 3137 3096 
Q 3566 2609 3566 1747 
Q 3566 888 3137 398 
Q 2709 -91 1959 -91 
Q 1206 -91 779 398 
Q 353 888 353 1747 
Q 353 2609 779 3096 
Q 1206 3584 1959 3584 
z
" transform="scale(0.015625)"/>
       <path id="DejaVuSans-6d" d="M 3328 2828 
Q 3544 3216 3844 3400 
Q 4144 3584 4550 3584 
Q 5097 3584 5394 3201 
Q 5691 2819 5691 2113 
L 5691 0 
L 5113 0 
L 5113 2094 
Q 5113 2597 4934 2840 
Q 4756 3084 4391 3084 
Q 3944 3084 3684 2787 
Q 3425 2491 3425 1978 
L 3425 0 
L 2847 0 
L 2847 2094 
Q 2847 2600 2669 2842 
Q 2491 3084 2119 3084 
Q 1678 3084 1418 2786 
Q 1159 2488 1159 1978 
L 1159 0 
L 581 0 
L 581 3500 
L 1159 3500 
L 1159 2956 
Q 1356 3278 1631 3431 
Q 1906 3584 2284 3584 
Q 2666 3584 2933 3390 
Q 3200 3197 3328 2828 
z
" transform="scale(0.015625)"/>
       <path id="DejaVuSans-70" d="M 1159 525 
L 1159 -1331 
L 581 -1331 
L 581 3500 
L 1159 3500 
L 1159 2969 
Q 1341 3281 1617 3432 
Q 1894 3584 2278 3584 
Q 2916 3584 3314 3078 
Q 3713 2572 3713 1747 
Q 3713 922 3314 415 
Q 2916 -91 2278 -91 
Q 1894 -91 1617 61 
Q 1341 213 1159 525 
z
M 3116 1747 
Q 3116 2381 2855 2742 
Q 2594 3103 2138 3103 
Q 1681 3103 1420 2742 
Q 1159 2381 1159 1747 
Q 1159 1113 1420 752 
Q 1681 391 2138 391 
Q 2594 391 2855 752 
Q 3116 1113 3116 1747 
z
" transform="scale(0.015625)"/>
       <path id="DejaVuSans-6e" d="M 3513 2113 
L 3513 0 
L 2938 0 
L 2938 2094 
Q 2938 2591 2744 2837 
Q 2550 3084 2163 3084 
Q 1697 3084 1428 2787 
Q 1159 2491 1159 1978 
L 1159 0 
L 581 0 
L 581 3500 
L 1159 3500 
L 1159 2956 
Q 1366 3272 1645 3428 
Q 1925 3584 2291 3584 
Q 2894 3584 3203 3211 
Q 3513 2838 3513 2113 
z
" transform="scale(0.015625)"/>
       <path id="DejaVuSans-65" d="M 3597 1894 
L 3597 1613 
L 953 1613 
Q 991 1019 1311 708 
Q 1631 397 2203 397 
Q 2534 397 2845 478 
Q 3156 559 3463 722 
L 3463 178 
Q 3153 47 2828 -22 
Q 2503 -91 2169 -91 
Q 1331 -91 842 396 
Q 353 884 353 1716 
Q 353 2575 817 3079 
Q 1281 3584 2069 3584 
Q 2775 3584 3186 3129 
Q 3597 2675 3597 1894 
z
M 3022 2063 
Q 3016 2534 2758 2815 
Q 2500 3097 2075 3097 
Q 1594 3097 1305 2825 
Q 1016 2553 972 2059 
L 3022 2063 
z
" transform="scale(0.015625)"/>
       <path id="DejaVuSans-74" d="M 1172 4494 
L 1172 3500 
L 2356 3500 
L 2356 3053 
L 1172 3053 
L 1172 1153 
Q 1172 725 1289 603 
Q 1406 481 1766 481 
L 2356 481 
L 2356 0 
L 1766 0 
Q 1100 0 847 248 
Q 594 497 594 1153 
L 594 3053 
L 172 3053 
L 172 3500 
L 594 3500 
L 594 4494 
L 1172 4494 
z
" transform="scale(0.015625)"/>
       <path id="DejaVuSans-31" d="M 794 531 
L 1825 531 
L 1825 4091 
L 703 3866 
L 703 4441 
L 1819 4666 
L 2450 4666 
L 2450 531 
L 3481 531 
L 3481 0 
L 794 0 
L 794 531 
z
" transform="scale(0.015625)"/>
      </defs>
      <use xlink:href="#DejaVuSans-53"/>
      <use xlink:href="#DejaVuSans-56" transform="translate(63.476562 0)"/>
      <use xlink:href="#DejaVuSans-44" transform="translate(131.884766 0)"/>
      <use xlink:href="#DejaVuSans-20" transform="translate(208.886719 0)"/>
      <use xlink:href="#DejaVuSans-43" transform="translate(240.673828 0)"/>
      <use xlink:href="#DejaVuSans-6f" transform="translate(310.498047 0)"/>
      <use xlink:href="#DejaVuSans-6d" transform="translate(371.679688 0)"/>
      <use xlink:href="#DejaVuSans-70" transform="translate(469.091797 0)"/>
      <use xlink:href="#DejaVuSans-6f" transform="translate(532.568359 0)"/>
      <use xlink:href="#DejaVuSans-6e" transform="translate(593.75 0)"/>
      <use xlink:href="#DejaVuSans-65" transform="translate(657.128906 0)"/>
      <use xlink:href="#DejaVuSans-6e" transform="translate(718.652344 0)"/>
      <use xlink:href="#DejaVuSans-74" transform="translate(782.03125 0)"/>
      <use xlink:href="#DejaVuSans-20" transform="translate(821.240234 0)"/>
      <use xlink:href="#DejaVuSans-31" transform="translate(853.027344 0)"/>
     </g>
    </g>
   </g>
   <g id="matplotlib.axis_2">
    <g id="ytick_1">
     <g id="line2d_28">
      <defs>
       <path id="m05508200d9" d="M 0 0 
L -3.5 0 
" style="stroke: #000000; stroke-width: 0.8"/>
      </defs>
      <g>
       <use xlink:href="#m05508200d9" x="108" y="378.783764" style="stroke: #000000; stroke-width: 0.8"/>
      </g>
     </g>
     <g id="text_9">
      <!-- −0.3 -->
      <g transform="translate(76.717187 382.582983) scale(0.1 -0.1)">
       <defs>
        <path id="DejaVuSans-33" d="M 2597 2516 
Q 3050 2419 3304 2112 
Q 3559 1806 3559 1356 
Q 3559 666 3084 287 
Q 2609 -91 1734 -91 
Q 1441 -91 1130 -33 
Q 819 25 488 141 
L 488 750 
Q 750 597 1062 519 
Q 1375 441 1716 441 
Q 2309 441 2620 675 
Q 2931 909 2931 1356 
Q 2931 1769 2642 2001 
Q 2353 2234 1838 2234 
L 1294 2234 
L 1294 2753 
L 1863 2753 
Q 2328 2753 2575 2939 
Q 2822 3125 2822 3475 
Q 2822 3834 2567 4026 
Q 2313 4219 1838 4219 
Q 1578 4219 1281 4162 
Q 984 4106 628 3988 
L 628 4550 
Q 988 4650 1302 4700 
Q 1616 4750 1894 4750 
Q 2613 4750 3031 4423 
Q 3450 4097 3450 3541 
Q 3450 3153 3228 2886 
Q 3006 2619 2597 2516 
z
" transform="scale(0.015625)"/>
       </defs>
       <use xlink:href="#DejaVuSans-2212"/>
       <use xlink:href="#DejaVuSans-30" transform="translate(83.789062 0)"/>
       <use xlink:href="#DejaVuSans-2e" transform="translate(147.412109 0)"/>
       <use xlink:href="#DejaVuSans-33" transform="translate(179.199219 0)"/>
      </g>
     </g>
    </g>
    <g id="ytick_2">
     <g id="line2d_29">
      <g>
       <use xlink:href="#m05508200d9" x="108" y="332.934345" style="stroke: #000000; stroke-width: 0.8"/>
      </g>
     </g>
     <g id="text_10">
      <!-- −0.2 -->
      <g transform="translate(76.717187 336.733563) scale(0.1 -0.1)">
       <defs>
        <path id="DejaVuSans-32" d="M 1228 531 
L 3431 531 
L 3431 0 
L 469 0 
L 469 531 
Q 828 903 1448 1529 
Q 2069 2156 2228 2338 
Q 2531 2678 2651 2914 
Q 2772 3150 2772 3378 
Q 2772 3750 2511 3984 
Q 2250 4219 1831 4219 
Q 1534 4219 1204 4116 
Q 875 4013 500 3803 
L 500 4441 
Q 881 4594 1212 4672 
Q 1544 4750 1819 4750 
Q 2544 4750 2975 4387 
Q 3406 4025 3406 3419 
Q 3406 3131 3298 2873 
Q 3191 2616 2906 2266 
Q 2828 2175 2409 1742 
Q 1991 1309 1228 531 
z
" transform="scale(0.015625)"/>
       </defs>
       <use xlink:href="#DejaVuSans-2212"/>
       <use xlink:href="#DejaVuSans-30" transform="translate(83.789062 0)"/>
       <use xlink:href="#DejaVuSans-2e" transform="translate(147.412109 0)"/>
       <use xlink:href="#DejaVuSans-32" transform="translate(179.199219 0)"/>
      </g>
     </g>
    </g>
    <g id="ytick_3">
     <g id="line2d_30">
      <g>
       <use xlink:href="#m05508200d9" x="108" y="287.084926" style="stroke: #000000; stroke-width: 0.8"/>
      </g>
     </g>
     <g id="text_11">
      <!-- −0.1 -->
      <g transform="translate(76.717187 290.884144) scale(0.1 -0.1)">
       <use xlink:href="#DejaVuSans-2212"/>
       <use xlink:href="#DejaVuSans-30" transform="translate(83.789062 0)"/>
       <use xlink:href="#DejaVuSans-2e" transform="translate(147.412109 0)"/>
       <use xlink:href="#DejaVuSans-31" transform="translate(179.199219 0)"/>
      </g>
     </g>
    </g>
    <g id="ytick_4">
     <g id="line2d_31">
      <g>
       <use xlink:href="#m05508200d9" x="108" y="241.235506" style="stroke: #000000; stroke-width: 0.8"/>
      </g>
     </g>
     <g id="text_12">
      <!-- 0.0 -->
      <g transform="translate(85.096875 245.034725) scale(0.1 -0.1)">
       <use xlink:href="#DejaVuSans-30"/>
       <use xlink:href="#DejaVuSans-2e" transform="translate(63.623047 0)"/>
       <use xlink:href="#DejaVuSans-30" transform="translate(95.410156 0)"/>
      </g>
     </g>
    </g>
    <g id="ytick_5">
     <g id="line2d_32">
      <g>
       <use xlink:href="#m05508200d9" x="108" y="195.386087" style="stroke: #000000; stroke-width: 0.8"/>
      </g>
     </g>
     <g id="text_13">
      <!-- 0.1 -->
      <g transform="translate(85.096875 199.185306) scale(0.1 -0.1)">
       <use xlink:href="#DejaVuSans-30"/>
       <use xlink:href="#DejaVuSans-2e" transform="translate(63.623047 0)"/>
       <use xlink:href="#DejaVuSans-31" transform="translate(95.410156 0)"/>
      </g>
     </g>
    </g>
    <g id="ytick_6">
     <g id="line2d_33">
      <g>
       <use xlink:href="#m05508200d9" x="108" y="149.536668" style="stroke: #000000; stroke-width: 0.8"/>
      </g>
     </g>
     <g id="text_14">
      <!-- 0.2 -->
      <g transform="translate(85.096875 153.335887) scale(0.1 -0.1)">
       <use xlink:href="#DejaVuSans-30"/>
       <use xlink:href="#DejaVuSans-2e" transform="translate(63.623047 0)"/>
       <use xlink:href="#DejaVuSans-32" transform="translate(95.410156 0)"/>
      </g>
     </g>
    </g>
    <g id="ytick_7">
     <g id="line2d_34">
      <g>
       <use xlink:href="#m05508200d9" x="108" y="103.687249" style="stroke: #000000; stroke-width: 0.8"/>
      </g>
     </g>
     <g id="text_15">
      <!-- 0.3 -->
      <g transform="translate(85.096875 107.486467) scale(0.1 -0.1)">
       <use xlink:href="#DejaVuSans-30"/>
       <use xlink:href="#DejaVuSans-2e" transform="translate(63.623047 0)"/>
       <use xlink:href="#DejaVuSans-33" transform="translate(95.410156 0)"/>
      </g>
     </g>
    </g>
    <g id="ytick_8">
     <g id="line2d_35">
      <g>
       <use xlink:href="#m05508200d9" x="108" y="57.837829" style="stroke: #000000; stroke-width: 0.8"/>
      </g>
     </g>
     <g id="text_16">
      <!-- 0.4 -->
      <g transform="translate(85.096875 61.637048) scale(0.1 -0.1)">
       <defs>
        <path id="DejaVuSans-34" d="M 2419 4116 
L 825 1625 
L 2419 1625 
L 2419 4116 
z
M 2253 4666 
L 3047 4666 
L 3047 1625 
L 3713 1625 
L 3713 1100 
L 3047 1100 
L 3047 0 
L 2419 0 
L 2419 1100 
L 313 1100 
L 313 1709 
L 2253 4666 
z
" transform="scale(0.015625)"/>
       </defs>
       <use xlink:href="#DejaVuSans-30"/>
       <use xlink:href="#DejaVuSans-2e" transform="translate(63.623047 0)"/>
       <use xlink:href="#DejaVuSans-34" transform="translate(95.410156 0)"/>
      </g>
     </g>
    </g>
    <g id="text_17">
     <!-- SVD Component 2 -->
     <g transform="translate(70.6375 263.992812) rotate(-90) scale(0.1 -0.1)">
      <use xlink:href="#DejaVuSans-53"/>
      <use xlink:href="#DejaVuSans-56" transform="translate(63.476562 0)"/>
      <use xlink:href="#DejaVuSans-44" transform="translate(131.884766 0)"/>
      <use xlink:href="#DejaVuSans-20" transform="translate(208.886719 0)"/>
      <use xlink:href="#DejaVuSans-43" transform="translate(240.673828 0)"/>
      <use xlink:href="#DejaVuSans-6f" transform="translate(310.498047 0)"/>
      <use xlink:href="#DejaVuSans-6d" transform="translate(371.679688 0)"/>
      <use xlink:href="#DejaVuSans-70" transform="translate(469.091797 0)"/>
      <use xlink:href="#DejaVuSans-6f" transform="translate(532.568359 0)"/>
      <use xlink:href="#DejaVuSans-6e" transform="translate(593.75 0)"/>
      <use xlink:href="#DejaVuSans-65" transform="translate(657.128906 0)"/>
      <use xlink:href="#DejaVuSans-6e" transform="translate(718.652344 0)"/>
      <use xlink:href="#DejaVuSans-74" transform="translate(782.03125 0)"/>
      <use xlink:href="#DejaVuSans-20" transform="translate(821.240234 0)"/>
      <use xlink:href="#DejaVuSans-32" transform="translate(853.027344 0)"/>
     </g>
    </g>
   </g>
   <g id="PathCollection_1">
    <defs>
     <path id="m9a79916f7a" d="M 0 3 
C 0.795609 3 1.55874 2.683901 2.12132 2.12132 
C 2.683901 1.55874 3 0.795609 3 0 
C 3 -0.795609 2.683901 -1.55874 2.12132 -2.12132 
C 1.55874 -2.683901 0.795609 -3 0 -3 
C -0.795609 -3 -1.55874 -2.683901 -2.12132 -2.12132 
C -2.683901 -1.55874 -3 -0.795609 -3 0 
C -3 0.795609 -2.683901 1.55874 -2.12132 2.12132 
C -1.55874 2.683901 -0.795609 3 0 3 
z
" style="stroke: #0000ff; stroke-opacity: 0.6"/>
    </defs>
    <g clip-path="url(#p56271068e6)">
     <use xlink:href="#m9a79916f7a" x="300.834304" y="225.310063" style="fill: #0000ff; fill-opacity: 0.6; stroke: #0000ff; stroke-opacity: 0.6"/>
    </g>
   </g>
   <g id="PathCollection_2">
    <g clip-path="url(#p56271068e6)">
     <use xlink:href="#m9a79916f7a" x="446.467397" y="353.34608" style="fill: #0000ff; fill-opacity: 0.6; stroke: #0000ff; stroke-opacity: 0.6"/>
    </g>
   </g>
   <g id="PathCollection_3">
    <g clip-path="url(#p56271068e6)">
     <use xlink:href="#m9a79916f7a" x="464.758142" y="124.174348" style="fill: #0000ff; fill-opacity: 0.6; stroke: #0000ff; stroke-opacity: 0.6"/>
    </g>
   </g>
   <g id="PathCollection_4">
    <g clip-path="url(#p56271068e6)">
     <use xlink:href="#m9a79916f7a" x="421.38119" y="208.817847" style="fill: #0000ff; fill-opacity: 0.6; stroke: #0000ff; stroke-opacity: 0.6"/>
    </g>
   </g>
   <g id="PathCollection_5">
    <g clip-path="url(#p56271068e6)">
     <use xlink:href="#m9a79916f7a" x="747.163636" y="121.033005" style="fill: #0000ff; fill-opacity: 0.6; stroke: #0000ff; stroke-opacity: 0.6"/>
    </g>
   </g>
   <g id="PathCollection_6">
    <g clip-path="url(#p56271068e6)">
     <use xlink:href="#m9a79916f7a" x="185.457125" y="325.149583" style="fill: #0000ff; fill-opacity: 0.6; stroke: #0000ff; stroke-opacity: 0.6"/>
    </g>
   </g>
   <g id="PathCollection_7">
    <g clip-path="url(#p56271068e6)">
     <use xlink:href="#m9a79916f7a" x="317.995456" y="336.933008" style="fill: #0000ff; fill-opacity: 0.6; stroke: #0000ff; stroke-opacity: 0.6"/>
    </g>
   </g>
   <g id="PathCollection_8">
    <g clip-path="url(#p56271068e6)">
     <use xlink:href="#m9a79916f7a" x="725.350838" y="66.96" style="fill: #0000ff; fill-opacity: 0.6; stroke: #0000ff; stroke-opacity: 0.6"/>
    </g>
   </g>
   <g id="PathCollection_9">
    <g clip-path="url(#p56271068e6)">
     <use xlink:href="#m9a79916f7a" x="601.403157" y="93.967548" style="fill: #0000ff; fill-opacity: 0.6; stroke: #0000ff; stroke-opacity: 0.6"/>
    </g>
   </g>
   <g id="PathCollection_10">
    <g clip-path="url(#p56271068e6)">
     <use xlink:href="#m9a79916f7a" x="219.671185" y="254.699765" style="fill: #0000ff; fill-opacity: 0.6; stroke: #0000ff; stroke-opacity: 0.6"/>
    </g>
   </g>
   <g id="PathCollection_11">
    <g clip-path="url(#p56271068e6)">
     <use xlink:href="#m9a79916f7a" x="466.836511" y="101.520471" style="fill: #0000ff; fill-opacity: 0.6; stroke: #0000ff; stroke-opacity: 0.6"/>
    </g>
   </g>
   <g id="PathCollection_12">
    <g clip-path="url(#p56271068e6)">
     <use xlink:href="#m9a79916f7a" x="253.006547" y="348.266519" style="fill: #0000ff; fill-opacity: 0.6; stroke: #0000ff; stroke-opacity: 0.6"/>
    </g>
   </g>
   <g id="PathCollection_13">
    <g clip-path="url(#p56271068e6)">
     <use xlink:href="#m9a79916f7a" x="280.026216" y="357.734041" style="fill: #0000ff; fill-opacity: 0.6; stroke: #0000ff; stroke-opacity: 0.6"/>
    </g>
   </g>
   <g id="PathCollection_14">
    <g clip-path="url(#p56271068e6)">
     <use xlink:href="#m9a79916f7a" x="522.930442" y="211.986019" style="fill: #0000ff; fill-opacity: 0.6; stroke: #0000ff; stroke-opacity: 0.6"/>
    </g>
   </g>
   <g id="PathCollection_15">
    <g clip-path="url(#p56271068e6)">
     <use xlink:href="#m9a79916f7a" x="384.243598" y="207.642193" style="fill: #0000ff; fill-opacity: 0.6; stroke: #0000ff; stroke-opacity: 0.6"/>
    </g>
   </g>
   <g id="PathCollection_16">
    <g clip-path="url(#p56271068e6)">
     <use xlink:href="#m9a79916f7a" x="485.627046" y="214.693282" style="fill: #0000ff; fill-opacity: 0.6; stroke: #0000ff; stroke-opacity: 0.6"/>
    </g>
   </g>
   <g id="PathCollection_17">
    <g clip-path="url(#p56271068e6)">
     <use xlink:href="#m9a79916f7a" x="359.311933" y="199.236386" style="fill: #0000ff; fill-opacity: 0.6; stroke: #0000ff; stroke-opacity: 0.6"/>
    </g>
   </g>
   <g id="PathCollection_18">
    <g clip-path="url(#p56271068e6)">
     <use xlink:href="#m9a79916f7a" x="441.589881" y="194.518233" style="fill: #0000ff; fill-opacity: 0.6; stroke: #0000ff; stroke-opacity: 0.6"/>
    </g>
   </g>
   <g id="PathCollection_19">
    <g clip-path="url(#p56271068e6)">
     <use xlink:href="#m9a79916f7a" x="555.033599" y="122.280423" style="fill: #0000ff; fill-opacity: 0.6; stroke: #0000ff; stroke-opacity: 0.6"/>
    </g>
   </g>
   <g id="PathCollection_20">
    <g clip-path="url(#p56271068e6)">
     <use xlink:href="#m9a79916f7a" x="224.213464" y="305.888955" style="fill: #0000ff; fill-opacity: 0.6; stroke: #0000ff; stroke-opacity: 0.6"/>
    </g>
   </g>
   <g id="PathCollection_21">
    <defs>
     <path id="m07c563c03b" d="M 0 3 
C 0.795609 3 1.55874 2.683901 2.12132 2.12132 
C 2.683901 1.55874 3 0.795609 3 0 
C 3 -0.795609 2.683901 -1.55874 2.12132 -2.12132 
C 1.55874 -2.683901 0.795609 -3 0 -3 
C -0.795609 -3 -1.55874 -2.683901 -2.12132 -2.12132 
C -2.683901 -1.55874 -3 -0.795609 -3 0 
C -3 0.795609 -2.683901 1.55874 -2.12132 2.12132 
C -1.55874 2.683901 -0.795609 3 0 3 
z
" style="stroke: #ffa500; stroke-opacity: 0.6"/>
    </defs>
    <g clip-path="url(#p56271068e6)">
     <use xlink:href="#m07c563c03b" x="267.483426" y="247.157698" style="fill: #ffa500; fill-opacity: 0.6; stroke: #ffa500; stroke-opacity: 0.6"/>
    </g>
   </g>
   <g id="PathCollection_22">
    <g clip-path="url(#p56271068e6)">
     <use xlink:href="#m07c563c03b" x="304.573466" y="363.834665" style="fill: #ffa500; fill-opacity: 0.6; stroke: #ffa500; stroke-opacity: 0.6"/>
    </g>
   </g>
   <g id="PathCollection_23">
    <g clip-path="url(#p56271068e6)">
     <use xlink:href="#m07c563c03b" x="328.203726" y="168.036349" style="fill: #ffa500; fill-opacity: 0.6; stroke: #ffa500; stroke-opacity: 0.6"/>
    </g>
   </g>
   <g id="PathCollection_24">
    <g clip-path="url(#p56271068e6)">
     <use xlink:href="#m07c563c03b" x="232.478636" y="226.388127" style="fill: #ffa500; fill-opacity: 0.6; stroke: #ffa500; stroke-opacity: 0.6"/>
    </g>
   </g>
   <g id="PathCollection_25">
    <g clip-path="url(#p56271068e6)">
     <use xlink:href="#m07c563c03b" x="528.865474" y="209.554043" style="fill: #ffa500; fill-opacity: 0.6; stroke: #ffa500; stroke-opacity: 0.6"/>
    </g>
   </g>
   <g id="PathCollection_26">
    <g clip-path="url(#p56271068e6)">
     <use xlink:href="#m07c563c03b" x="138.436364" y="345.014824" style="fill: #ffa500; fill-opacity: 0.6; stroke: #ffa500; stroke-opacity: 0.6"/>
    </g>
   </g>
   <g id="PathCollection_27">
    <g clip-path="url(#p56271068e6)">
     <use xlink:href="#m07c563c03b" x="215.091992" y="338.547678" style="fill: #ffa500; fill-opacity: 0.6; stroke: #ffa500; stroke-opacity: 0.6"/>
    </g>
   </g>
   <g id="PathCollection_28">
    <g clip-path="url(#p56271068e6)">
     <use xlink:href="#m07c563c03b" x="432.813782" y="120.723976" style="fill: #ffa500; fill-opacity: 0.6; stroke: #ffa500; stroke-opacity: 0.6"/>
    </g>
   </g>
   <g id="PathCollection_29">
    <g clip-path="url(#p56271068e6)">
     <use xlink:href="#m07c563c03b" x="446.791997" y="138.891462" style="fill: #ffa500; fill-opacity: 0.6; stroke: #ffa500; stroke-opacity: 0.6"/>
    </g>
   </g>
   <g id="PathCollection_30">
    <g clip-path="url(#p56271068e6)">
     <use xlink:href="#m07c563c03b" x="154.020062" y="283.818996" style="fill: #ffa500; fill-opacity: 0.6; stroke: #ffa500; stroke-opacity: 0.6"/>
    </g>
   </g>
   <g id="PathCollection_31">
    <g clip-path="url(#p56271068e6)">
     <use xlink:href="#m07c563c03b" x="342.718145" y="127.974135" style="fill: #ffa500; fill-opacity: 0.6; stroke: #ffa500; stroke-opacity: 0.6"/>
    </g>
   </g>
   <g id="PathCollection_32">
    <g clip-path="url(#p56271068e6)">
     <use xlink:href="#m07c563c03b" x="166.370645" y="365.035379" style="fill: #ffa500; fill-opacity: 0.6; stroke: #ffa500; stroke-opacity: 0.6"/>
    </g>
   </g>
   <g id="PathCollection_33">
    <g clip-path="url(#p56271068e6)">
     <use xlink:href="#m07c563c03b" x="226.217127" y="369.36" style="fill: #ffa500; fill-opacity: 0.6; stroke: #ffa500; stroke-opacity: 0.6"/>
    </g>
   </g>
   <g id="PathCollection_34">
    <g clip-path="url(#p56271068e6)">
     <use xlink:href="#m07c563c03b" x="468.94754" y="240.426657" style="fill: #ffa500; fill-opacity: 0.6; stroke: #ffa500; stroke-opacity: 0.6"/>
    </g>
   </g>
   <g id="PathCollection_35">
    <g clip-path="url(#p56271068e6)">
     <use xlink:href="#m07c563c03b" x="254.720022" y="268.70074" style="fill: #ffa500; fill-opacity: 0.6; stroke: #ffa500; stroke-opacity: 0.6"/>
    </g>
   </g>
   <g id="PathCollection_36">
    <g clip-path="url(#p56271068e6)">
     <use xlink:href="#m07c563c03b" x="347.147802" y="237.930644" style="fill: #ffa500; fill-opacity: 0.6; stroke: #ffa500; stroke-opacity: 0.6"/>
    </g>
   </g>
   <g id="PathCollection_37">
    <g clip-path="url(#p56271068e6)">
     <use xlink:href="#m07c563c03b" x="260.902571" y="242.778853" style="fill: #ffa500; fill-opacity: 0.6; stroke: #ffa500; stroke-opacity: 0.6"/>
    </g>
   </g>
   <g id="PathCollection_38">
    <g clip-path="url(#p56271068e6)">
     <use xlink:href="#m07c563c03b" x="341.794022" y="232.129851" style="fill: #ffa500; fill-opacity: 0.6; stroke: #ffa500; stroke-opacity: 0.6"/>
    </g>
   </g>
   <g id="PathCollection_39">
    <g clip-path="url(#p56271068e6)">
     <use xlink:href="#m07c563c03b" x="397.786844" y="166.200558" style="fill: #ffa500; fill-opacity: 0.6; stroke: #ffa500; stroke-opacity: 0.6"/>
    </g>
   </g>
   <g id="PathCollection_40">
    <g clip-path="url(#p56271068e6)">
     <use xlink:href="#m07c563c03b" x="160.365913" y="336.068987" style="fill: #ffa500; fill-opacity: 0.6; stroke: #ffa500; stroke-opacity: 0.6"/>
    </g>
   </g>
   <g id="patch_3">
    <path d="M 108 384.48 
L 108 51.84 
" style="fill: none; stroke: #000000; stroke-width: 0.8; stroke-linejoin: miter; stroke-linecap: square"/>
   </g>
   <g id="patch_4">
    <path d="M 777.6 384.48 
L 777.6 51.84 
" style="fill: none; stroke: #000000; stroke-width: 0.8; stroke-linejoin: miter; stroke-linecap: square"/>
   </g>
   <g id="patch_5">
    <path d="M 108 384.48 
L 777.6 384.48 
" style="fill: none; stroke: #000000; stroke-width: 0.8; stroke-linejoin: miter; stroke-linecap: square"/>
   </g>
   <g id="patch_6">
    <path d="M 108 51.84 
L 777.6 51.84 
" style="fill: none; stroke: #000000; stroke-width: 0.8; stroke-linejoin: miter; stroke-linecap: square"/>
   </g>
   <g id="text_18">
    <!-- 0 -->
    <g style="fill: #0000ff" transform="translate(305.834304 220.310063) scale(0.08 -0.08)">
     <use xlink:href="#DejaVuSans-30"/>
    </g>
   </g>
   <g id="text_19">
    <!-- 1 -->
    <g style="fill: #0000ff" transform="translate(451.467397 348.34608) scale(0.08 -0.08)">
     <use xlink:href="#DejaVuSans-31"/>
    </g>
   </g>
   <g id="text_20">
    <!-- 2 -->
    <g style="fill: #0000ff" transform="translate(469.758142 119.174348) scale(0.08 -0.08)">
     <use xlink:href="#DejaVuSans-32"/>
    </g>
   </g>
   <g id="text_21">
    <!-- 3 -->
    <g style="fill: #0000ff" transform="translate(426.38119 203.817847) scale(0.08 -0.08)">
     <use xlink:href="#DejaVuSans-33"/>
    </g>
   </g>
   <g id="text_22">
    <!-- 4 -->
    <g style="fill: #0000ff" transform="translate(752.163636 116.033005) scale(0.08 -0.08)">
     <use xlink:href="#DejaVuSans-34"/>
    </g>
   </g>
   <g id="text_23">
    <!-- 5 -->
    <g style="fill: #0000ff" transform="translate(190.457125 320.149583) scale(0.08 -0.08)">
     <use xlink:href="#DejaVuSans-35"/>
    </g>
   </g>
   <g id="text_24">
    <!-- 6 -->
    <g style="fill: #0000ff" transform="translate(322.995456 331.933008) scale(0.08 -0.08)">
     <use xlink:href="#DejaVuSans-36"/>
    </g>
   </g>
   <g id="text_25">
    <!-- 7 -->
    <g style="fill: #0000ff" transform="translate(730.350838 61.96) scale(0.08 -0.08)">
     <use xlink:href="#DejaVuSans-37"/>
    </g>
   </g>
   <g id="text_26">
    <!-- 8 -->
    <g style="fill: #0000ff" transform="translate(606.403157 88.967548) scale(0.08 -0.08)">
     <use xlink:href="#DejaVuSans-38"/>
    </g>
   </g>
   <g id="text_27">
    <!-- 9 -->
    <g style="fill: #0000ff" transform="translate(224.671185 249.699765) scale(0.08 -0.08)">
     <defs>
      <path id="DejaVuSans-39" d="M 703 97 
L 703 672 
Q 941 559 1184 500 
Q 1428 441 1663 441 
Q 2288 441 2617 861 
Q 2947 1281 2994 2138 
Q 2813 1869 2534 1725 
Q 2256 1581 1919 1581 
Q 1219 1581 811 2004 
Q 403 2428 403 3163 
Q 403 3881 828 4315 
Q 1253 4750 1959 4750 
Q 2769 4750 3195 4129 
Q 3622 3509 3622 2328 
Q 3622 1225 3098 567 
Q 2575 -91 1691 -91 
Q 1453 -91 1209 -44 
Q 966 3 703 97 
z
M 1959 2075 
Q 2384 2075 2632 2365 
Q 2881 2656 2881 3163 
Q 2881 3666 2632 3958 
Q 2384 4250 1959 4250 
Q 1534 4250 1286 3958 
Q 1038 3666 1038 3163 
Q 1038 2656 1286 2365 
Q 1534 2075 1959 2075 
z
" transform="scale(0.015625)"/>
     </defs>
     <use xlink:href="#DejaVuSans-39"/>
    </g>
   </g>
   <g id="text_28">
    <!-- 10 -->
    <g style="fill: #0000ff" transform="translate(471.836511 96.520471) scale(0.08 -0.08)">
     <use xlink:href="#DejaVuSans-31"/>
     <use xlink:href="#DejaVuSans-30" transform="translate(63.623047 0)"/>
    </g>
   </g>
   <g id="text_29">
    <!-- 11 -->
    <g style="fill: #0000ff" transform="translate(258.006547 343.266519) scale(0.08 -0.08)">
     <use xlink:href="#DejaVuSans-31"/>
     <use xlink:href="#DejaVuSans-31" transform="translate(63.623047 0)"/>
    </g>
   </g>
   <g id="text_30">
    <!-- 12 -->
    <g style="fill: #0000ff" transform="translate(285.026216 352.734041) scale(0.08 -0.08)">
     <use xlink:href="#DejaVuSans-31"/>
     <use xlink:href="#DejaVuSans-32" transform="translate(63.623047 0)"/>
    </g>
   </g>
   <g id="text_31">
    <!-- 13 -->
    <g style="fill: #0000ff" transform="translate(527.930442 206.986019) scale(0.08 -0.08)">
     <use xlink:href="#DejaVuSans-31"/>
     <use xlink:href="#DejaVuSans-33" transform="translate(63.623047 0)"/>
    </g>
   </g>
   <g id="text_32">
    <!-- 14 -->
    <g style="fill: #0000ff" transform="translate(389.243598 202.642193) scale(0.08 -0.08)">
     <use xlink:href="#DejaVuSans-31"/>
     <use xlink:href="#DejaVuSans-34" transform="translate(63.623047 0)"/>
    </g>
   </g>
   <g id="text_33">
    <!-- 15 -->
    <g style="fill: #0000ff" transform="translate(490.627046 209.693282) scale(0.08 -0.08)">
     <use xlink:href="#DejaVuSans-31"/>
     <use xlink:href="#DejaVuSans-35" transform="translate(63.623047 0)"/>
    </g>
   </g>
   <g id="text_34">
    <!-- 16 -->
    <g style="fill: #0000ff" transform="translate(364.311933 194.236386) scale(0.08 -0.08)">
     <use xlink:href="#DejaVuSans-31"/>
     <use xlink:href="#DejaVuSans-36" transform="translate(63.623047 0)"/>
    </g>
   </g>
   <g id="text_35">
    <!-- 17 -->
    <g style="fill: #0000ff" transform="translate(446.589881 189.518233) scale(0.08 -0.08)">
     <use xlink:href="#DejaVuSans-31"/>
     <use xlink:href="#DejaVuSans-37" transform="translate(63.623047 0)"/>
    </g>
   </g>
   <g id="text_36">
    <!-- 18 -->
    <g style="fill: #0000ff" transform="translate(560.033599 117.280423) scale(0.08 -0.08)">
     <use xlink:href="#DejaVuSans-31"/>
     <use xlink:href="#DejaVuSans-38" transform="translate(63.623047 0)"/>
    </g>
   </g>
   <g id="text_37">
    <!-- 19 -->
    <g style="fill: #0000ff" transform="translate(229.213464 300.888955) scale(0.08 -0.08)">
     <use xlink:href="#DejaVuSans-31"/>
     <use xlink:href="#DejaVuSans-39" transform="translate(63.623047 0)"/>
    </g>
   </g>
   <g id="text_38">
    <!-- 0 -->
    <g style="fill: #ffa500" transform="translate(272.483426 242.157698) scale(0.08 -0.08)">
     <use xlink:href="#DejaVuSans-30"/>
    </g>
   </g>
   <g id="text_39">
    <!-- 1 -->
    <g style="fill: #ffa500" transform="translate(309.573466 358.834665) scale(0.08 -0.08)">
     <use xlink:href="#DejaVuSans-31"/>
    </g>
   </g>
   <g id="text_40">
    <!-- 2 -->
    <g style="fill: #ffa500" transform="translate(333.203726 163.036349) scale(0.08 -0.08)">
     <use xlink:href="#DejaVuSans-32"/>
    </g>
   </g>
   <g id="text_41">
    <!-- 3 -->
    <g style="fill: #ffa500" transform="translate(237.478636 221.388127) scale(0.08 -0.08)">
     <use xlink:href="#DejaVuSans-33"/>
    </g>
   </g>
   <g id="text_42">
    <!-- 4 -->
    <g style="fill: #ffa500" transform="translate(533.865474 204.554043) scale(0.08 -0.08)">
     <use xlink:href="#DejaVuSans-34"/>
    </g>
   </g>
   <g id="text_43">
    <!-- 5 -->
    <g style="fill: #ffa500" transform="translate(143.436364 340.014824) scale(0.08 -0.08)">
     <use xlink:href="#DejaVuSans-35"/>
    </g>
   </g>
   <g id="text_44">
    <!-- 6 -->
    <g style="fill: #ffa500" transform="translate(220.091992 333.547678) scale(0.08 -0.08)">
     <use xlink:href="#DejaVuSans-36"/>
    </g>
   </g>
   <g id="text_45">
    <!-- 7 -->
    <g style="fill: #ffa500" transform="translate(437.813782 115.723976) scale(0.08 -0.08)">
     <use xlink:href="#DejaVuSans-37"/>
    </g>
   </g>
   <g id="text_46">
    <!-- 8 -->
    <g style="fill: #ffa500" transform="translate(451.791997 133.891462) scale(0.08 -0.08)">
     <use xlink:href="#DejaVuSans-38"/>
    </g>
   </g>
   <g id="text_47">
    <!-- 9 -->
    <g style="fill: #ffa500" transform="translate(159.020062 278.818996) scale(0.08 -0.08)">
     <use xlink:href="#DejaVuSans-39"/>
    </g>
   </g>
   <g id="text_48">
    <!-- 10 -->
    <g style="fill: #ffa500" transform="translate(347.718145 122.974135) scale(0.08 -0.08)">
     <use xlink:href="#DejaVuSans-31"/>
     <use xlink:href="#DejaVuSans-30" transform="translate(63.623047 0)"/>
    </g>
   </g>
   <g id="text_49">
    <!-- 11 -->
    <g style="fill: #ffa500" transform="translate(171.370645 360.035379) scale(0.08 -0.08)">
     <use xlink:href="#DejaVuSans-31"/>
     <use xlink:href="#DejaVuSans-31" transform="translate(63.623047 0)"/>
    </g>
   </g>
   <g id="text_50">
    <!-- 12 -->
    <g style="fill: #ffa500" transform="translate(231.217127 364.36) scale(0.08 -0.08)">
     <use xlink:href="#DejaVuSans-31"/>
     <use xlink:href="#DejaVuSans-32" transform="translate(63.623047 0)"/>
    </g>
   </g>
   <g id="text_51">
    <!-- 13 -->
    <g style="fill: #ffa500" transform="translate(473.94754 235.426657) scale(0.08 -0.08)">
     <use xlink:href="#DejaVuSans-31"/>
     <use xlink:href="#DejaVuSans-33" transform="translate(63.623047 0)"/>
    </g>
   </g>
   <g id="text_52">
    <!-- 14 -->
    <g style="fill: #ffa500" transform="translate(259.720022 263.70074) scale(0.08 -0.08)">
     <use xlink:href="#DejaVuSans-31"/>
     <use xlink:href="#DejaVuSans-34" transform="translate(63.623047 0)"/>
    </g>
   </g>
   <g id="text_53">
    <!-- 15 -->
    <g style="fill: #ffa500" transform="translate(352.147802 232.930644) scale(0.08 -0.08)">
     <use xlink:href="#DejaVuSans-31"/>
     <use xlink:href="#DejaVuSans-35" transform="translate(63.623047 0)"/>
    </g>
   </g>
   <g id="text_54">
    <!-- 16 -->
    <g style="fill: #ffa500" transform="translate(265.902571 237.778853) scale(0.08 -0.08)">
     <use xlink:href="#DejaVuSans-31"/>
     <use xlink:href="#DejaVuSans-36" transform="translate(63.623047 0)"/>
    </g>
   </g>
   <g id="text_55">
    <!-- 17 -->
    <g style="fill: #ffa500" transform="translate(346.794022 227.129851) scale(0.08 -0.08)">
     <use xlink:href="#DejaVuSans-31"/>
     <use xlink:href="#DejaVuSans-37" transform="translate(63.623047 0)"/>
    </g>
   </g>
   <g id="text_56">
    <!-- 18 -->
    <g style="fill: #ffa500" transform="translate(402.786844 161.200558) scale(0.08 -0.08)">
     <use xlink:href="#DejaVuSans-31"/>
     <use xlink:href="#DejaVuSans-38" transform="translate(63.623047 0)"/>
    </g>
   </g>
   <g id="text_57">
    <!-- 19 -->
    <g style="fill: #ffa500" transform="translate(165.365913 331.068987) scale(0.08 -0.08)">
     <use xlink:href="#DejaVuSans-31"/>
     <use xlink:href="#DejaVuSans-39" transform="translate(63.623047 0)"/>
    </g>
   </g>
   <g id="text_58">
    <!-- Visualization of English-German Sentence Embeddings -->
    <g transform="translate(278.1225 45.84) scale(0.12 -0.12)">
     <defs>
      <path id="DejaVuSans-69" d="M 603 3500 
L 1178 3500 
L 1178 0 
L 603 0 
L 603 3500 
z
M 603 4863 
L 1178 4863 
L 1178 4134 
L 603 4134 
L 603 4863 
z
" transform="scale(0.015625)"/>
      <path id="DejaVuSans-73" d="M 2834 3397 
L 2834 2853 
Q 2591 2978 2328 3040 
Q 2066 3103 1784 3103 
Q 1356 3103 1142 2972 
Q 928 2841 928 2578 
Q 928 2378 1081 2264 
Q 1234 2150 1697 2047 
L 1894 2003 
Q 2506 1872 2764 1633 
Q 3022 1394 3022 966 
Q 3022 478 2636 193 
Q 2250 -91 1575 -91 
Q 1294 -91 989 -36 
Q 684 19 347 128 
L 347 722 
Q 666 556 975 473 
Q 1284 391 1588 391 
Q 1994 391 2212 530 
Q 2431 669 2431 922 
Q 2431 1156 2273 1281 
Q 2116 1406 1581 1522 
L 1381 1569 
Q 847 1681 609 1914 
Q 372 2147 372 2553 
Q 372 3047 722 3315 
Q 1072 3584 1716 3584 
Q 2034 3584 2315 3537 
Q 2597 3491 2834 3397 
z
" transform="scale(0.015625)"/>
      <path id="DejaVuSans-75" d="M 544 1381 
L 544 3500 
L 1119 3500 
L 1119 1403 
Q 1119 906 1312 657 
Q 1506 409 1894 409 
Q 2359 409 2629 706 
Q 2900 1003 2900 1516 
L 2900 3500 
L 3475 3500 
L 3475 0 
L 2900 0 
L 2900 538 
Q 2691 219 2414 64 
Q 2138 -91 1772 -91 
Q 1169 -91 856 284 
Q 544 659 544 1381 
z
M 1991 3584 
L 1991 3584 
z
" transform="scale(0.015625)"/>
      <path id="DejaVuSans-61" d="M 2194 1759 
Q 1497 1759 1228 1600 
Q 959 1441 959 1056 
Q 959 750 1161 570 
Q 1363 391 1709 391 
Q 2188 391 2477 730 
Q 2766 1069 2766 1631 
L 2766 1759 
L 2194 1759 
z
M 3341 1997 
L 3341 0 
L 2766 0 
L 2766 531 
Q 2569 213 2275 61 
Q 1981 -91 1556 -91 
Q 1019 -91 701 211 
Q 384 513 384 1019 
Q 384 1609 779 1909 
Q 1175 2209 1959 2209 
L 2766 2209 
L 2766 2266 
Q 2766 2663 2505 2880 
Q 2244 3097 1772 3097 
Q 1472 3097 1187 3025 
Q 903 2953 641 2809 
L 641 3341 
Q 956 3463 1253 3523 
Q 1550 3584 1831 3584 
Q 2591 3584 2966 3190 
Q 3341 2797 3341 1997 
z
" transform="scale(0.015625)"/>
      <path id="DejaVuSans-6c" d="M 603 4863 
L 1178 4863 
L 1178 0 
L 603 0 
L 603 4863 
z
" transform="scale(0.015625)"/>
      <path id="DejaVuSans-7a" d="M 353 3500 
L 3084 3500 
L 3084 2975 
L 922 459 
L 3084 459 
L 3084 0 
L 275 0 
L 275 525 
L 2438 3041 
L 353 3041 
L 353 3500 
z
" transform="scale(0.015625)"/>
      <path id="DejaVuSans-66" d="M 2375 4863 
L 2375 4384 
L 1825 4384 
Q 1516 4384 1395 4259 
Q 1275 4134 1275 3809 
L 1275 3500 
L 2222 3500 
L 2222 3053 
L 1275 3053 
L 1275 0 
L 697 0 
L 697 3053 
L 147 3053 
L 147 3500 
L 697 3500 
L 697 3744 
Q 697 4328 969 4595 
Q 1241 4863 1831 4863 
L 2375 4863 
z
" transform="scale(0.015625)"/>
      <path id="DejaVuSans-45" d="M 628 4666 
L 3578 4666 
L 3578 4134 
L 1259 4134 
L 1259 2753 
L 3481 2753 
L 3481 2222 
L 1259 2222 
L 1259 531 
L 3634 531 
L 3634 0 
L 628 0 
L 628 4666 
z
" transform="scale(0.015625)"/>
      <path id="DejaVuSans-67" d="M 2906 1791 
Q 2906 2416 2648 2759 
Q 2391 3103 1925 3103 
Q 1463 3103 1205 2759 
Q 947 2416 947 1791 
Q 947 1169 1205 825 
Q 1463 481 1925 481 
Q 2391 481 2648 825 
Q 2906 1169 2906 1791 
z
M 3481 434 
Q 3481 -459 3084 -895 
Q 2688 -1331 1869 -1331 
Q 1566 -1331 1297 -1286 
Q 1028 -1241 775 -1147 
L 775 -588 
Q 1028 -725 1275 -790 
Q 1522 -856 1778 -856 
Q 2344 -856 2625 -561 
Q 2906 -266 2906 331 
L 2906 616 
Q 2728 306 2450 153 
Q 2172 0 1784 0 
Q 1141 0 747 490 
Q 353 981 353 1791 
Q 353 2603 747 3093 
Q 1141 3584 1784 3584 
Q 2172 3584 2450 3431 
Q 2728 3278 2906 2969 
L 2906 3500 
L 3481 3500 
L 3481 434 
z
" transform="scale(0.015625)"/>
      <path id="DejaVuSans-68" d="M 3513 2113 
L 3513 0 
L 2938 0 
L 2938 2094 
Q 2938 2591 2744 2837 
Q 2550 3084 2163 3084 
Q 1697 3084 1428 2787 
Q 1159 2491 1159 1978 
L 1159 0 
L 581 0 
L 581 4863 
L 1159 4863 
L 1159 2956 
Q 1366 3272 1645 3428 
Q 1925 3584 2291 3584 
Q 2894 3584 3203 3211 
Q 3513 2838 3513 2113 
z
" transform="scale(0.015625)"/>
      <path id="DejaVuSans-2d" d="M 313 2009 
L 1997 2009 
L 1997 1497 
L 313 1497 
L 313 2009 
z
" transform="scale(0.015625)"/>
      <path id="DejaVuSans-47" d="M 3809 666 
L 3809 1919 
L 2778 1919 
L 2778 2438 
L 4434 2438 
L 4434 434 
Q 4069 175 3628 42 
Q 3188 -91 2688 -91 
Q 1594 -91 976 548 
Q 359 1188 359 2328 
Q 359 3472 976 4111 
Q 1594 4750 2688 4750 
Q 3144 4750 3555 4637 
Q 3966 4525 4313 4306 
L 4313 3634 
Q 3963 3931 3569 4081 
Q 3175 4231 2741 4231 
Q 1884 4231 1454 3753 
Q 1025 3275 1025 2328 
Q 1025 1384 1454 906 
Q 1884 428 2741 428 
Q 3075 428 3337 486 
Q 3600 544 3809 666 
z
" transform="scale(0.015625)"/>
      <path id="DejaVuSans-72" d="M 2631 2963 
Q 2534 3019 2420 3045 
Q 2306 3072 2169 3072 
Q 1681 3072 1420 2755 
Q 1159 2438 1159 1844 
L 1159 0 
L 581 0 
L 581 3500 
L 1159 3500 
L 1159 2956 
Q 1341 3275 1631 3429 
Q 1922 3584 2338 3584 
Q 2397 3584 2469 3576 
Q 2541 3569 2628 3553 
L 2631 2963 
z
" transform="scale(0.015625)"/>
      <path id="DejaVuSans-63" d="M 3122 3366 
L 3122 2828 
Q 2878 2963 2633 3030 
Q 2388 3097 2138 3097 
Q 1578 3097 1268 2742 
Q 959 2388 959 1747 
Q 959 1106 1268 751 
Q 1578 397 2138 397 
Q 2388 397 2633 464 
Q 2878 531 3122 666 
L 3122 134 
Q 2881 22 2623 -34 
Q 2366 -91 2075 -91 
Q 1284 -91 818 406 
Q 353 903 353 1747 
Q 353 2603 823 3093 
Q 1294 3584 2113 3584 
Q 2378 3584 2631 3529 
Q 2884 3475 3122 3366 
z
" transform="scale(0.015625)"/>
      <path id="DejaVuSans-62" d="M 3116 1747 
Q 3116 2381 2855 2742 
Q 2594 3103 2138 3103 
Q 1681 3103 1420 2742 
Q 1159 2381 1159 1747 
Q 1159 1113 1420 752 
Q 1681 391 2138 391 
Q 2594 391 2855 752 
Q 3116 1113 3116 1747 
z
M 1159 2969 
Q 1341 3281 1617 3432 
Q 1894 3584 2278 3584 
Q 2916 3584 3314 3078 
Q 3713 2572 3713 1747 
Q 3713 922 3314 415 
Q 2916 -91 2278 -91 
Q 1894 -91 1617 61 
Q 1341 213 1159 525 
L 1159 0 
L 581 0 
L 581 4863 
L 1159 4863 
L 1159 2969 
z
" transform="scale(0.015625)"/>
      <path id="DejaVuSans-64" d="M 2906 2969 
L 2906 4863 
L 3481 4863 
L 3481 0 
L 2906 0 
L 2906 525 
Q 2725 213 2448 61 
Q 2172 -91 1784 -91 
Q 1150 -91 751 415 
Q 353 922 353 1747 
Q 353 2572 751 3078 
Q 1150 3584 1784 3584 
Q 2172 3584 2448 3432 
Q 2725 3281 2906 2969 
z
M 947 1747 
Q 947 1113 1208 752 
Q 1469 391 1925 391 
Q 2381 391 2643 752 
Q 2906 1113 2906 1747 
Q 2906 2381 2643 2742 
Q 2381 3103 1925 3103 
Q 1469 3103 1208 2742 
Q 947 2381 947 1747 
z
" transform="scale(0.015625)"/>
     </defs>
     <use xlink:href="#DejaVuSans-56"/>
     <use xlink:href="#DejaVuSans-69" transform="translate(66.158203 0)"/>
     <use xlink:href="#DejaVuSans-73" transform="translate(93.941406 0)"/>
     <use xlink:href="#DejaVuSans-75" transform="translate(146.041016 0)"/>
     <use xlink:href="#DejaVuSans-61" transform="translate(209.419922 0)"/>
     <use xlink:href="#DejaVuSans-6c" transform="translate(270.699219 0)"/>
     <use xlink:href="#DejaVuSans-69" transform="translate(298.482422 0)"/>
     <use xlink:href="#DejaVuSans-7a" transform="translate(326.265625 0)"/>
     <use xlink:href="#DejaVuSans-61" transform="translate(378.755859 0)"/>
     <use xlink:href="#DejaVuSans-74" transform="translate(440.035156 0)"/>
     <use xlink:href="#DejaVuSans-69" transform="translate(479.244141 0)"/>
     <use xlink:href="#DejaVuSans-6f" transform="translate(507.027344 0)"/>
     <use xlink:href="#DejaVuSans-6e" transform="translate(568.208984 0)"/>
     <use xlink:href="#DejaVuSans-20" transform="translate(631.587891 0)"/>
     <use xlink:href="#DejaVuSans-6f" transform="translate(663.375 0)"/>
     <use xlink:href="#DejaVuSans-66" transform="translate(724.556641 0)"/>
     <use xlink:href="#DejaVuSans-20" transform="translate(759.761719 0)"/>
     <use xlink:href="#DejaVuSans-45" transform="translate(791.548828 0)"/>
     <use xlink:href="#DejaVuSans-6e" transform="translate(854.732422 0)"/>
     <use xlink:href="#DejaVuSans-67" transform="translate(918.111328 0)"/>
     <use xlink:href="#DejaVuSans-6c" transform="translate(981.587891 0)"/>
     <use xlink:href="#DejaVuSans-69" transform="translate(1009.371094 0)"/>
     <use xlink:href="#DejaVuSans-73" transform="translate(1037.154297 0)"/>
     <use xlink:href="#DejaVuSans-68" transform="translate(1089.253906 0)"/>
     <use xlink:href="#DejaVuSans-2d" transform="translate(1152.632812 0)"/>
     <use xlink:href="#DejaVuSans-47" transform="translate(1192.341797 0)"/>
     <use xlink:href="#DejaVuSans-65" transform="translate(1269.832031 0)"/>
     <use xlink:href="#DejaVuSans-72" transform="translate(1331.355469 0)"/>
     <use xlink:href="#DejaVuSans-6d" transform="translate(1370.71875 0)"/>
     <use xlink:href="#DejaVuSans-61" transform="translate(1468.130859 0)"/>
     <use xlink:href="#DejaVuSans-6e" transform="translate(1529.410156 0)"/>
     <use xlink:href="#DejaVuSans-20" transform="translate(1592.789062 0)"/>
     <use xlink:href="#DejaVuSans-53" transform="translate(1624.576172 0)"/>
     <use xlink:href="#DejaVuSans-65" transform="translate(1688.052734 0)"/>
     <use xlink:href="#DejaVuSans-6e" transform="translate(1749.576172 0)"/>
     <use xlink:href="#DejaVuSans-74" transform="translate(1812.955078 0)"/>
     <use xlink:href="#DejaVuSans-65" transform="translate(1852.164062 0)"/>
     <use xlink:href="#DejaVuSans-6e" transform="translate(1913.6875 0)"/>
     <use xlink:href="#DejaVuSans-63" transform="translate(1977.066406 0)"/>
     <use xlink:href="#DejaVuSans-65" transform="translate(2032.046875 0)"/>
     <use xlink:href="#DejaVuSans-20" transform="translate(2093.570312 0)"/>
     <use xlink:href="#DejaVuSans-45" transform="translate(2125.357422 0)"/>
     <use xlink:href="#DejaVuSans-6d" transform="translate(2188.541016 0)"/>
     <use xlink:href="#DejaVuSans-62" transform="translate(2285.953125 0)"/>
     <use xlink:href="#DejaVuSans-65" transform="translate(2349.429688 0)"/>
     <use xlink:href="#DejaVuSans-64" transform="translate(2410.953125 0)"/>
     <use xlink:href="#DejaVuSans-64" transform="translate(2474.429688 0)"/>
     <use xlink:href="#DejaVuSans-69" transform="translate(2537.90625 0)"/>
     <use xlink:href="#DejaVuSans-6e" transform="translate(2565.689453 0)"/>
     <use xlink:href="#DejaVuSans-67" transform="translate(2629.068359 0)"/>
     <use xlink:href="#DejaVuSans-73" transform="translate(2692.544922 0)"/>
    </g>
   </g>
   <g id="legend_1">
    <g id="patch_7">
     <path d="M 115 89.19625 
L 187.04375 89.19625 
Q 189.04375 89.19625 189.04375 87.19625 
L 189.04375 58.84 
Q 189.04375 56.84 187.04375 56.84 
L 115 56.84 
Q 113 56.84 113 58.84 
L 113 87.19625 
Q 113 89.19625 115 89.19625 
z
" style="fill: #ffffff; opacity: 0.8; stroke: #cccccc; stroke-linejoin: miter"/>
    </g>
    <g id="PathCollection_41">
     <g>
      <use xlink:href="#m9a79916f7a" x="127" y="65.813437" style="fill: #0000ff; fill-opacity: 0.6; stroke: #0000ff; stroke-opacity: 0.6"/>
     </g>
    </g>
    <g id="text_59">
     <!-- English -->
     <g transform="translate(145 68.438437) scale(0.1 -0.1)">
      <use xlink:href="#DejaVuSans-45"/>
      <use xlink:href="#DejaVuSans-6e" transform="translate(63.183594 0)"/>
      <use xlink:href="#DejaVuSans-67" transform="translate(126.5625 0)"/>
      <use xlink:href="#DejaVuSans-6c" transform="translate(190.039062 0)"/>
      <use xlink:href="#DejaVuSans-69" transform="translate(217.822266 0)"/>
      <use xlink:href="#DejaVuSans-73" transform="translate(245.605469 0)"/>
      <use xlink:href="#DejaVuSans-68" transform="translate(297.705078 0)"/>
     </g>
    </g>
    <g id="PathCollection_42">
     <g>
      <use xlink:href="#m07c563c03b" x="127" y="80.491562" style="fill: #ffa500; fill-opacity: 0.6; stroke: #ffa500; stroke-opacity: 0.6"/>
     </g>
    </g>
    <g id="text_60">
     <!-- German -->
     <g transform="translate(145 83.116562) scale(0.1 -0.1)">
      <use xlink:href="#DejaVuSans-47"/>
      <use xlink:href="#DejaVuSans-65" transform="translate(77.490234 0)"/>
      <use xlink:href="#DejaVuSans-72" transform="translate(139.013672 0)"/>
      <use xlink:href="#DejaVuSans-6d" transform="translate(178.376953 0)"/>
      <use xlink:href="#DejaVuSans-61" transform="translate(275.789062 0)"/>
      <use xlink:href="#DejaVuSans-6e" transform="translate(337.068359 0)"/>
     </g>
    </g>
   </g>
  </g>
  <g id="text_61">
   <g id="patch_8">
    <path d="M 13.28 429.02375 
L 196.30625 429.02375 
L 196.30625 395.36475 
L 13.28 395.36475 
z
" style="fill: #ffffff; opacity: 0.8; stroke: #000000; stroke-linejoin: miter"/>
   </g>
   <!-- Blue numbers (0-19): English sentences -->
   <g transform="translate(17.28 405.4435) scale(0.08 -0.08)">
    <defs>
     <path id="DejaVuSans-42" d="M 1259 2228 
L 1259 519 
L 2272 519 
Q 2781 519 3026 730 
Q 3272 941 3272 1375 
Q 3272 1813 3026 2020 
Q 2781 2228 2272 2228 
L 1259 2228 
z
M 1259 4147 
L 1259 2741 
L 2194 2741 
Q 2656 2741 2882 2914 
Q 3109 3088 3109 3444 
Q 3109 3797 2882 3972 
Q 2656 4147 2194 4147 
L 1259 4147 
z
M 628 4666 
L 2241 4666 
Q 2963 4666 3353 4366 
Q 3744 4066 3744 3513 
Q 3744 3084 3544 2831 
Q 3344 2578 2956 2516 
Q 3422 2416 3680 2098 
Q 3938 1781 3938 1306 
Q 3938 681 3513 340 
Q 3088 0 2303 0 
L 628 0 
L 628 4666 
z
" transform="scale(0.015625)"/>
     <path id="DejaVuSans-28" d="M 1984 4856 
Q 1566 4138 1362 3434 
Q 1159 2731 1159 2009 
Q 1159 1288 1364 580 
Q 1569 -128 1984 -844 
L 1484 -844 
Q 1016 -109 783 600 
Q 550 1309 550 2009 
Q 550 2706 781 3412 
Q 1013 4119 1484 4856 
L 1984 4856 
z
" transform="scale(0.015625)"/>
     <path id="DejaVuSans-29" d="M 513 4856 
L 1013 4856 
Q 1481 4119 1714 3412 
Q 1947 2706 1947 2009 
Q 1947 1309 1714 600 
Q 1481 -109 1013 -844 
L 513 -844 
Q 928 -128 1133 580 
Q 1338 1288 1338 2009 
Q 1338 2731 1133 3434 
Q 928 4138 513 4856 
z
" transform="scale(0.015625)"/>
     <path id="DejaVuSans-3a" d="M 750 794 
L 1409 794 
L 1409 0 
L 750 0 
L 750 794 
z
M 750 3309 
L 1409 3309 
L 1409 2516 
L 750 2516 
L 750 3309 
z
" transform="scale(0.015625)"/>
    </defs>
    <use xlink:href="#DejaVuSans-42"/>
    <use xlink:href="#DejaVuSans-6c" transform="translate(68.603516 0)"/>
    <use xlink:href="#DejaVuSans-75" transform="translate(96.386719 0)"/>
    <use xlink:href="#DejaVuSans-65" transform="translate(159.765625 0)"/>
    <use xlink:href="#DejaVuSans-20" transform="translate(221.289062 0)"/>
    <use xlink:href="#DejaVuSans-6e" transform="translate(253.076172 0)"/>
    <use xlink:href="#DejaVuSans-75" transform="translate(316.455078 0)"/>
    <use xlink:href="#DejaVuSans-6d" transform="translate(379.833984 0)"/>
    <use xlink:href="#DejaVuSans-62" transform="translate(477.246094 0)"/>
    <use xlink:href="#DejaVuSans-65" transform="translate(540.722656 0)"/>
    <use xlink:href="#DejaVuSans-72" transform="translate(602.246094 0)"/>
    <use xlink:href="#DejaVuSans-73" transform="translate(643.359375 0)"/>
    <use xlink:href="#DejaVuSans-20" transform="translate(695.458984 0)"/>
    <use xlink:href="#DejaVuSans-28" transform="translate(727.246094 0)"/>
    <use xlink:href="#DejaVuSans-30" transform="translate(766.259766 0)"/>
    <use xlink:href="#DejaVuSans-2d" transform="translate(829.882812 0)"/>
    <use xlink:href="#DejaVuSans-31" transform="translate(865.966797 0)"/>
    <use xlink:href="#DejaVuSans-39" transform="translate(929.589844 0)"/>
    <use xlink:href="#DejaVuSans-29" transform="translate(993.212891 0)"/>
    <use xlink:href="#DejaVuSans-3a" transform="translate(1032.226562 0)"/>
    <use xlink:href="#DejaVuSans-20" transform="translate(1065.917969 0)"/>
    <use xlink:href="#DejaVuSans-45" transform="translate(1097.705078 0)"/>
    <use xlink:href="#DejaVuSans-6e" transform="translate(1160.888672 0)"/>
    <use xlink:href="#DejaVuSans-67" transform="translate(1224.267578 0)"/>
    <use xlink:href="#DejaVuSans-6c" transform="translate(1287.744141 0)"/>
    <use xlink:href="#DejaVuSans-69" transform="translate(1315.527344 0)"/>
    <use xlink:href="#DejaVuSans-73" transform="translate(1343.310547 0)"/>
    <use xlink:href="#DejaVuSans-68" transform="translate(1395.410156 0)"/>
    <use xlink:href="#DejaVuSans-20" transform="translate(1458.789062 0)"/>
    <use xlink:href="#DejaVuSans-73" transform="translate(1490.576172 0)"/>
    <use xlink:href="#DejaVuSans-65" transform="translate(1542.675781 0)"/>
    <use xlink:href="#DejaVuSans-6e" transform="translate(1604.199219 0)"/>
    <use xlink:href="#DejaVuSans-74" transform="translate(1667.578125 0)"/>
    <use xlink:href="#DejaVuSans-65" transform="translate(1706.787109 0)"/>
    <use xlink:href="#DejaVuSans-6e" transform="translate(1768.310547 0)"/>
    <use xlink:href="#DejaVuSans-63" transform="translate(1831.689453 0)"/>
    <use xlink:href="#DejaVuSans-65" transform="translate(1886.669922 0)"/>
    <use xlink:href="#DejaVuSans-73" transform="translate(1948.193359 0)"/>
   </g>
   <!-- Orange numbers (0-19): German sentences -->
   <g transform="translate(17.28 414.40175) scale(0.08 -0.08)">
    <defs>
     <path id="DejaVuSans-4f" d="M 2522 4238 
Q 1834 4238 1429 3725 
Q 1025 3213 1025 2328 
Q 1025 1447 1429 934 
Q 1834 422 2522 422 
Q 3209 422 3611 934 
Q 4013 1447 4013 2328 
Q 4013 3213 3611 3725 
Q 3209 4238 2522 4238 
z
M 2522 4750 
Q 3503 4750 4090 4092 
Q 4678 3434 4678 2328 
Q 4678 1225 4090 567 
Q 3503 -91 2522 -91 
Q 1538 -91 948 565 
Q 359 1222 359 2328 
Q 359 3434 948 4092 
Q 1538 4750 2522 4750 
z
" transform="scale(0.015625)"/>
    </defs>
    <use xlink:href="#DejaVuSans-4f"/>
    <use xlink:href="#DejaVuSans-72" transform="translate(78.710938 0)"/>
    <use xlink:href="#DejaVuSans-61" transform="translate(119.824219 0)"/>
    <use xlink:href="#DejaVuSans-6e" transform="translate(181.103516 0)"/>
    <use xlink:href="#DejaVuSans-67" transform="translate(244.482422 0)"/>
    <use xlink:href="#DejaVuSans-65" transform="translate(307.958984 0)"/>
    <use xlink:href="#DejaVuSans-20" transform="translate(369.482422 0)"/>
    <use xlink:href="#DejaVuSans-6e" transform="translate(401.269531 0)"/>
    <use xlink:href="#DejaVuSans-75" transform="translate(464.648438 0)"/>
    <use xlink:href="#DejaVuSans-6d" transform="translate(528.027344 0)"/>
    <use xlink:href="#DejaVuSans-62" transform="translate(625.439453 0)"/>
    <use xlink:href="#DejaVuSans-65" transform="translate(688.916016 0)"/>
    <use xlink:href="#DejaVuSans-72" transform="translate(750.439453 0)"/>
    <use xlink:href="#DejaVuSans-73" transform="translate(791.552734 0)"/>
    <use xlink:href="#DejaVuSans-20" transform="translate(843.652344 0)"/>
    <use xlink:href="#DejaVuSans-28" transform="translate(875.439453 0)"/>
    <use xlink:href="#DejaVuSans-30" transform="translate(914.453125 0)"/>
    <use xlink:href="#DejaVuSans-2d" transform="translate(978.076172 0)"/>
    <use xlink:href="#DejaVuSans-31" transform="translate(1014.160156 0)"/>
    <use xlink:href="#DejaVuSans-39" transform="translate(1077.783203 0)"/>
    <use xlink:href="#DejaVuSans-29" transform="translate(1141.40625 0)"/>
    <use xlink:href="#DejaVuSans-3a" transform="translate(1180.419922 0)"/>
    <use xlink:href="#DejaVuSans-20" transform="translate(1214.111328 0)"/>
    <use xlink:href="#DejaVuSans-47" transform="translate(1245.898438 0)"/>
    <use xlink:href="#DejaVuSans-65" transform="translate(1323.388672 0)"/>
    <use xlink:href="#DejaVuSans-72" transform="translate(1384.912109 0)"/>
    <use xlink:href="#DejaVuSans-6d" transform="translate(1424.275391 0)"/>
    <use xlink:href="#DejaVuSans-61" transform="translate(1521.6875 0)"/>
    <use xlink:href="#DejaVuSans-6e" transform="translate(1582.966797 0)"/>
    <use xlink:href="#DejaVuSans-20" transform="translate(1646.345703 0)"/>
    <use xlink:href="#DejaVuSans-73" transform="translate(1678.132812 0)"/>
    <use xlink:href="#DejaVuSans-65" transform="translate(1730.232422 0)"/>
    <use xlink:href="#DejaVuSans-6e" transform="translate(1791.755859 0)"/>
    <use xlink:href="#DejaVuSans-74" transform="translate(1855.134766 0)"/>
    <use xlink:href="#DejaVuSans-65" transform="translate(1894.34375 0)"/>
    <use xlink:href="#DejaVuSans-6e" transform="translate(1955.867188 0)"/>
    <use xlink:href="#DejaVuSans-63" transform="translate(2019.246094 0)"/>
    <use xlink:href="#DejaVuSans-65" transform="translate(2074.226562 0)"/>
    <use xlink:href="#DejaVuSans-73" transform="translate(2135.75 0)"/>
   </g>
   <!-- Dashed lines connect translation pairs -->
   <g transform="translate(17.28 423.36) scale(0.08 -0.08)">
    <use xlink:href="#DejaVuSans-44"/>
    <use xlink:href="#DejaVuSans-61" transform="translate(77.001953 0)"/>
    <use xlink:href="#DejaVuSans-73" transform="translate(138.28125 0)"/>
    <use xlink:href="#DejaVuSans-68" transform="translate(190.380859 0)"/>
    <use xlink:href="#DejaVuSans-65" transform="translate(253.759766 0)"/>
    <use xlink:href="#DejaVuSans-64" transform="translate(315.283203 0)"/>
    <use xlink:href="#DejaVuSans-20" transform="translate(378.759766 0)"/>
    <use xlink:href="#DejaVuSans-6c" transform="translate(410.546875 0)"/>
    <use xlink:href="#DejaVuSans-69" transform="translate(438.330078 0)"/>
    <use xlink:href="#DejaVuSans-6e" transform="translate(466.113281 0)"/>
    <use xlink:href="#DejaVuSans-65" transform="translate(529.492188 0)"/>
    <use xlink:href="#DejaVuSans-73" transform="translate(591.015625 0)"/>
    <use xlink:href="#DejaVuSans-20" transform="translate(643.115234 0)"/>
    <use xlink:href="#DejaVuSans-63" transform="translate(674.902344 0)"/>
    <use xlink:href="#DejaVuSans-6f" transform="translate(729.882812 0)"/>
    <use xlink:href="#DejaVuSans-6e" transform="translate(791.064453 0)"/>
    <use xlink:href="#DejaVuSans-6e" transform="translate(854.443359 0)"/>
    <use xlink:href="#DejaVuSans-65" transform="translate(917.822266 0)"/>
    <use xlink:href="#DejaVuSans-63" transform="translate(979.345703 0)"/>
    <use xlink:href="#DejaVuSans-74" transform="translate(1034.326172 0)"/>
    <use xlink:href="#DejaVuSans-20" transform="translate(1073.535156 0)"/>
    <use xlink:href="#DejaVuSans-74" transform="translate(1105.322266 0)"/>
    <use xlink:href="#DejaVuSans-72" transform="translate(1144.53125 0)"/>
    <use xlink:href="#DejaVuSans-61" transform="translate(1185.644531 0)"/>
    <use xlink:href="#DejaVuSans-6e" transform="translate(1246.923828 0)"/>
    <use xlink:href="#DejaVuSans-73" transform="translate(1310.302734 0)"/>
    <use xlink:href="#DejaVuSans-6c" transform="translate(1362.402344 0)"/>
    <use xlink:href="#DejaVuSans-61" transform="translate(1390.185547 0)"/>
    <use xlink:href="#DejaVuSans-74" transform="translate(1451.464844 0)"/>
    <use xlink:href="#DejaVuSans-69" transform="translate(1490.673828 0)"/>
    <use xlink:href="#DejaVuSans-6f" transform="translate(1518.457031 0)"/>
    <use xlink:href="#DejaVuSans-6e" transform="translate(1579.638672 0)"/>
    <use xlink:href="#DejaVuSans-20" transform="translate(1643.017578 0)"/>
    <use xlink:href="#DejaVuSans-70" transform="translate(1674.804688 0)"/>
    <use xlink:href="#DejaVuSans-61" transform="translate(1738.28125 0)"/>
    <use xlink:href="#DejaVuSans-69" transform="translate(1799.560547 0)"/>
    <use xlink:href="#DejaVuSans-72" transform="translate(1827.34375 0)"/>
    <use xlink:href="#DejaVuSans-73" transform="translate(1868.457031 0)"/>
   </g>
  </g>
 </g>
 <defs>
  <clipPath id="p56271068e6">
   <rect x="108" y="51.84" width="669.6" height="332.64"/>
  </clipPath>
 </defs>
</svg>
